Text mining of Wimbledon tweets using rtweet and tidytext // Under The Hood
…
## Joining, by = "word"

serena_tidy <- serena %>%
    select(user_id, status_id, screen_name,
                 favorite_count, retweet_count, followers_count, text) %>%
    unnest_tokens(word, text) %>%
    anti_join(stop_words)

## Joining, by = "word"

# Count most frequently occurring words
fed_tidy %>% count(word, sort = TRUE) %>% filter(!word %in% c("federer", "wimbledon"))

## # A tibble: 14,791 x 2
##    word         n
##    <chr>    <int>
##  1 anderson  9746
##  2 roger     6596
##  3 kevin     4781
##  4 match     4126
##  5 nadal     2893
##  6 england   2670
##  7 set       2503
##  8 2         2322
##  9 sets      2191
## 10 lost      2084
## # ... with 14,781 more rows
…
